[
    {
        "img_url": "https://steamcdn-a.akamaihd.net/steam/apps/945360/header.jpg?t=1598556351",
        "date": "Nov 16, 2018",
        "developer": "Innersloth",
        "publisher": "Innersloth",
        "full_desc": {
            "sort": "game",
            "desc": "About This Game Play with 4-10 player online or via local WiFi as you attempt to prepare your spaceship for departure, but beware as one or more random players among the Crew are Impostors bent on killing everyone!Originally created as a party game, we recommend playing with friends at a LAN party or online using voice chat. Enjoy cross-platform play between Android, iOS and PC. Win by completing tasks to prepare the ship or ejecting all Impostors. React quickly to undo the Impostor's sabotages. Check the Admin map and Security cameras to keep tabs on other Crewmates. Report any dead bodies immediately to start discussion of who the suspected Impostor is. Call emergency meetings to discuss suspicious behavior. Vote to eject suspected Impostors. Kill crewmates and frame bystanders. Pretend to run tasks to blend in with the crewmates. Sneak through the vents to quickly move about the ship. Use sabotages to cause chaos and divide the crew. Close doors to trap victims and kill in private.Features Customization: Pick your color and hat. Lots of game options: Add more impostors, more tasks, and so much more! Quickly find a game online from the host list. In-game text chat. Rich discord integration. Cross-platform play between PC, Android, and iOS!"
        },
        "requirements": {
            "minimum": {
                "windows": {
                    "processor": " SSE2 instruction set support",
                    "memory": " 1 ",
                    "graphics": "",
                    "os": " Windows 7 SP1+"
                }
            },
            "recommended": {}
        },
        "popu_tags": [
            "Multiplayer",
            "Online",
            "Space",
            "Social",
            "Deduction",
            "Survival",
            "Funny2",
            "Psychological",
            "Local",
            "Multiplayer",
            "Cartoony",
            "Casual",
            "Indie",
            "Colorful",
            "Minigames",
            "Local",
            "Down",
            "Aliens+"
        ],
        "price": "499",
        "url_info": {
            "url": "https://store.steampowered.com/app/945360/Among_Us/?snr=1_7_7_230_150_1",
            "id": "945360",
            "type": "app",
            "url_name": "Among Us"
        },
        "name": "Among Us",
        "categories": [
            "Online PvPLAN",
            "PvPOnline Co-opLAN",
            "Co-opCross-Platform Multiplayer Remote",
            "Play on",
            "Phone Remote Play",
            "on Tablet"
        ]
    },
    {
        "img_url": "https://steamcdn-a.akamaihd.net/steam/apps/730/header.jpg?t=1592263625",
        "date": "Aug 21, 2012",
        "developer": "Valve, Hidden Path Entertainment",
        "publisher": "Valve",
        "full_desc": {
            "sort": "game",
            "desc": "About This Game Counter-Strike: Global Offensive (CS: GO) expands upon the team-based action gameplay that it pioneered when it was launched 19 years ago.CS: GO features new maps, characters, weapons, and game modes, and delivers updated versions of the classic CS content (de_dust2, etc.).\"Counter-Strike took the gaming industry by surprise when the unlikely MOD became the most played online PC action game in the world almost immediately after its release in August 1999,\" said Doug Lombardi at Valve. \"For the past 12 years, it has continued to be one of the most-played games in the world, headline competitive gaming tournaments and selling over 25 million units worldwide across the franchise. CS: GO promises to expand on CS' award-winning gameplay and deliver it to gamers on the PC as well as the next gen consoles and the Mac.\""
        },
        "requirements": {
            "minimum": {
                "windows": {
                    "processor": " Intel\u00ae Core\u2122 2 Duo E6600 or AMD Phenom\u2122 X3 8750 processor or better",
                    "memory": " 2 GB RAM",
                    "graphics": " Video card must be 256 MB or more and should be a ",
                    "os": " Windows\u00ae 7/Vista/XP"
                },
                "linux": {
                    "processor": " 64-bit Dual core from Intel or AMD at 2.8 GHz",
                    "memory": " 4 GB RAM",
                    "graphics": " nVidia GeForce 8600/9600GT, ATI/AMD Radeon HD2600/3600 (Graphic Drivers: nVidia 310, AMD 12.11), OpenGL 2.1",
                    "os": " Ubuntu 12.04"
                }
            },
            "recommended": {}
        },
        "popu_tags": [
            "Shooter",
            "Multiplayer",
            "Competitive",
            "Action",
            "Team-",
            "Basede",
            "Sports",
            "Tactical",
            "First-",
            "Person",
            "Online",
            "Strategy",
            "Military",
            "Difficult",
            "Trading",
            "Realistic",
            "Fast-",
            "Paced",
            "Moddable+"
        ],
        "price": "free",
        "url_info": {
            "url": "https://store.steampowered.com/app/730/CounterStrike_Global_Offensive/?snr=1_7_7_230_150_1",
            "id": "730",
            "type": "app",
            "url_name": "CounterStrike Global Offensive"
        },
        "name": "Counter-Strike: Global Offensive",
        "categories": [
            "Steam Achievements Full",
            "controller supportSteam",
            "Trading Cards Steam",
            "Workshop In-App Purchases Valve",
            "Anti-Cheat enabledStats Remote",
            "Play on",
            "Phone Remote Play",
            "on Tablet Remote",
            "Play on"
        ]
    },
    {
        "img_url": "https://steamcdn-a.akamaihd.net/steam/apps/1097150/header_alt_assets_0.jpg?t=1602172542",
        "date": "Aug 3, 2020",
        "developer": "Mediatonic",
        "publisher": "Devolver Digital",
        "full_desc": {
            "sort": "game",
            "desc": "About This Game Fall Guys: Ultimate Knockout flings hordes of contestants together online in a mad dash through round after round of escalating chaos until one victor remains! Battle bizarre obstacles, shove through unruly competitors, and overcome the unbending laws of physics as you stumble towards greatness. Leave your dignity at the door and prepare for hilarious failure in your quest to claim the crown!Massive Online Pandemonium: Dive into a series of ridiculous challenges and wild obstacle courses with masses of other competitors online, all with the hopes of making the cut and advancing to the next round of mayhem.Competitive & Cooperative: Shift between competitive free-for-alls and cooperative challenges where the losing team all get eliminated!Comically Physical: Watch in delight as your fellow competitors bend, bounce, and bash their way to hilarious, physics-based failure!Delightfully Customizable: Fail in style with everything from fashionable pineapple couture to the latest in bunny hats available to customize your look in Fall Guys."
        },
        "requirements": {},
        "popu_tags": [
            "Multiplayer",
            "Funny",
            "Battle",
            "Royale",
            "Online",
            "Family",
            "Friendly",
            "Comedy",
            "Party",
            "Game",
            "Cute",
            "Physics",
            "Casual",
            "Massively",
            "Multiplayer",
            "Colorful3",
            "Platformer",
            "Indie",
            "Action",
            "Controller",
            "Great",
            "Soundtrack",
            "Difficult",
            "Local",
            "+"
        ],
        "price": "199",
        "url_info": {
            "url": "https://store.steampowered.com/app/1097150/Fall_Guys_Ultimate_Knockout/?snr=1_7_7_230_150_1",
            "id": "1097150",
            "type": "app",
            "url_name": "Fall Guys Ultimate Knockout"
        },
        "name": "Fall Guys: Ultimate Knockout",
        "categories": [
            "MMOOnline PvPOnline",
            "Co-opSteam Achievements Full",
            "controller supportIn-App",
            "Purchases Remote Play",
            "on Phone Remote",
            "Play on"
        ]
    },
    {
        "img_url": "https://steamcdn-a.akamaihd.net/steam/apps/1158310/header.jpg?t=1602596444",
        "date": "Sep 1, 2020",
        "developer": "Paradox Development Studio",
        "publisher": "Paradox Interactive",
        "pegi": {
            "pegi_url": "https://steamstore-a.akamaihd.net/public/shared/images/game_ratings/ESRB/m.png",
            "pegi_tags": [
                "Blood",
                "LanguagePartial",
                "Nudity",
                "Sexual",
                "Themes",
                "Use",
                "of",
                "Drugs",
                "Violence"
            ],
            "age_limit": "m"
        },
        "full_desc": {
            "sort": "game",
            "desc": "About This Game Paradox Development Studio brings you the sequel to one of the most popular strategy games ever made. Crusader Kings III is the heir to a long legacy of historical grand strategy experiences and arrives with a host of new ways to ensure the success of your royal house. Choose a royal or noble house from a number of realms on a map that stretches from Iceland to India, from the Arctic Circle to Central Africa. Guide a dynasty through the centuries, ensuring the security and power of each new generation. Gather new lands and titles to cement your legacy. Be a pious king to bring the religious powers to your side, or strike out on your own, designing your own splinter religion and earning everlasting fame or eternal damnation. Knights, peasant revolts, pilgrimages, Viking raiders... experience the drama and pageantry of the Middle Ages. Adopt one of five different lifestyles, perfecting your skills in military strategy or kingdom management. Acquire character traits that will guide your actions, but beware if you act against your nature! The stress from denying your truest self could bring a new host of troubles! Choose appropriate guardians for your heirs, or train them yourself. But what do you do if the legal heir is not quite up to the job? Violent characters may develop a fearsome reputation, cowering your timid subjects into obedience with the dread you inspire. Recruit men-at-arms units and powerful knights to supplement your royal levies. Research new technologies to increase the wealth and military might of your realm. Hire mercenaries and Holy Orders for your major wars.  Supplement your income with ransomed prisoners or raiding parties on neighboring realms. Use your spymaster to discover plots against your dynasty and your rule. Recruit agents to assist your schemes to undermine or murder anyone who stands between you and power. Seduce other characters for love or political power. Gather information for blackmailing purposes or call in favors whenever your plans need an extra bit of influence."
        },
        "requirements": {},
        "popu_tags": [
            "Strategy",
            "Simulation",
            "Medieval",
            "Grand",
            "Strategy",
            "Historical",
            "Sexual",
            "Content",
            "Multiplayer",
            "Singleplayer",
            "Political",
            "Dating",
            "Nudity",
            "Sandbox",
            "Choices",
            "Matter",
            "Character",
            "Customization",
            "Real-",
            "Time",
            "with",
            "Pause",
            "Moddable",
            "Management",
            "Great",
            "Soundtrack+"
        ],
        "price": "499",
        "url_info": {
            "url": "https://store.steampowered.com/app/1158310/Crusader_Kings_III/?snr=1_7_7_230_150_1",
            "id": "1158310",
            "type": "app",
            "url_name": "Crusader Kings III"
        },
        "name": "Crusader Kings III",
        "categories": [
            "Single-playerOnline PvPSteam",
            "Achievements Steam Trading",
            "Cards Steam Workshop Steam"
        ]
    },
    {
        "img_url": "https://steamcdn-a.akamaihd.net/steam/apps/1085660/header.jpg?t=1598982557",
        "date": "Oct 1, 2019",
        "developer": "Bungie",
        "publisher": "Bungie ",
        "pegi": {
            "pegi_url": "https://steamstore-a.akamaihd.net/public/shared/images/game_ratings/ESRB/t.png",
            "pegi_tags": [
                "Blood",
                "Language",
                "Violence"
            ],
            "age_limit": "m"
        },
        "full_desc": {
            "sort": "game",
            "desc": "About This Game Dive into the world of Destiny 2 to explore the mysteries of the solar system and experience responsive first-person shooter combat. Unlock powerful elemental abilities and collect unique gear to customize your Guardian's look and playstyle. Enjoy Destiny 2s cinematic story, challenging co-op missions, and a variety of PvP modes alone or with friends. Download for free today and write your legend in the stars.An Immersive StoryYou are a Guardian, defender of the Last City of humanity in a solar system under siege by infamous villains. Look to the stars and stand against the darkness. Your legend begins now.Guardian ClassesChoose from the armored Titan, mystic Warlock, or swift Hunter.TitanDisciplined and proud, Titans are capable of both aggressive assaults and stalwart defenses. Set your hammer ablaze, crack the sky with lightning, and go toe-to-toe with any opponent. Your team will stand tall behind the strength of your shield.WarlockWarlocks weaponize the mysteries of the universe to sustain themselves and destroy their foes. Rain devastation on the battlefield and clear hordes of enemies in the blink of an eye. Those who stand with you will know the true power of the Light.HunterAgile and daring, Hunters are quick on their feet and quicker on the draw. Fan the hammer of your golden gun, flow through enemies like the wind, or strike from the darkness. Find the enemy, take aim, and end the fight before it starts.Cooperative and Competitive MultiplayerPlay with or against your friends and other Guardians in various PvE and PvP game modes.Cooperative MultiplayerExciting co-op adventures teeming await with rare and powerful rewards. Dive into the story with missions, quests, and patrols. Put together a small fireteam and secure the chest at the end of a quick Strike. Or test your team's skill with countless hours of raid progression  the ultimate challenge for any fireteam. You decide where your legend begins.Competitive MultiplayerFace off against other players in fast-paced free-for-all skirmishes, team arenas, and PvE/PvP hybrid competitions. Mark special competitions like Iron Banner on your calendar and collect limited-time rewards before they're gone. Then, when you're ready, enter Trials of Osiris, where the only thing between you and glory are the best players in the world.Exotic Weapons and ArmorThousands of weapons, millions of options. Discover new gear combinations and define your own personal style. The hunt for the perfect arsenal begins."
        },
        "requirements": {},
        "popu_tags": [
            "Free",
            "Play",
            "Looter",
            "Shooter",
            "Multiplayer",
            "Action",
            "Online",
            "Adventure",
            "Shooter",
            "Open",
            "World",
            "Loot",
            "Space",
            "First-",
            "Person",
            "Great",
            "Soundtrack",
            "Lore-",
            "Rich",
            "Massively",
            "Multiplayer",
            "Atmospheric",
            "Singleplayer+"
        ],
        "price": "free",
        "url_info": {
            "url": "https://store.steampowered.com/app/1085660/Destiny_2/?snr=1_7_7_230_150_1",
            "id": "1085660",
            "type": "app",
            "url_name": "Destiny 2"
        },
        "name": "Destiny 2",
        "categories": [
            "Single-playerOnline PvPOnline",
            "Co-opSteam Achievements Full",
            "controller supportIn-App",
            "Purchases Remote Play",
            "on Phone Remote",
            "Play on",
            "Tablet Remote Play",
            "on TVRequires",
            "agreement to",
            "a 3rd-party",
            "EULADestiny 2"
        ]
    },
    {
        "img_url": "https://steamcdn-a.akamaihd.net/steam/apps/1145360/header.jpg?t=1601510167",
        "date": "Sep 17, 2020",
        "developer": "Supergiant Games",
        "publisher": "Supergiant Games",
        "full_desc": {
            "sort": "game",
            "desc": "About This Game Hades is a god-like rogue-like dungeon crawler that combines the best aspects of Supergiant's critically acclaimed titles, including the fast-paced action of Bastion, the rich atmosphere and depth of Transistor, and the character-driven storytelling of Pyre.BATTLE OUT OF HELLAs the immortal Prince of the Underworld, you'll wield the powers and mythic weapons of Olympus to break free from the clutches of the god of the dead himself, while growing stronger and unraveling more of the story with each unique escape attempt.UNLEASH THE FURY OF OLYMPUSThe Olympians have your back! Meet Zeus, Athena, Poseidon, and many more, and choose from their dozens of powerful Boons that enhance your abilities. There are thousands of viable character builds to discover as you go.BEFRIEND GODS, GHOSTS, AND MONSTERSA fully-voiced cast of colorful, larger-than-life characters is waiting to meet you! Grow your relationships with them, and experience thousands of unique story events as you learn about what's really at stake for this big, dysfunctional family.BUILT FOR REPLAYABILITYNew surprises await each time you delve into the ever-shifting Underworld, whose guardian bosses will remember you. Use the powerful Mirror of Night to grow permanently stronger, and give yourself a leg up the next time you run away from home.NOTHING IS IMPOSSIBLEPermanent upgrades mean you don't have to be a god yourself to experience the exciting combat and gripping story. Though, if you happen to be one, crank up the challenge and get ready for some white-knuckle action that will put your well-practiced skills to the test.SIGNATURE SUPERGIANT STYLEThe rich, atmospheric presentation and unique melding of gameplay and narrative that's been core to Supergiant's games is here in full force: spectacular hand-painted environments and a blood-pumping original score bring the Underworld to life."
        },
        "requirements": {
            "minimum": {
                "windows": {
                    "processor": " Dual Core 2.4 GHz",
                    "memory": " 4 GB RAM",
                    "graphics": " 1GB VRAM / ",
                    "os": " Windows 7 SP1"
                },
                "linux": {
                    "processor": " Dual Core 2.4GHz",
                    "memory": " 4 GB RAM",
                    "graphics": " Intel HD 5000 (must support Metal API)",
                    "os": " 10.13.6+"
                }
            },
            "recommended": {
                "windows": {
                    "processor": " Dual Core 3.0 GHz+",
                    "memory": " 8 GB RAM",
                    "graphics": " 2GB VRAM / ",
                    "os": "Windows 7 SP1"
                },
                "macOS": {
                    "processor": " Quad Core 3.0 GHz+",
                    "memory": " 8 GB RAM",
                    "graphics": " Intel UHD 630+ (must support Metal API)",
                    "os": "macOS 10.14+"
                }
            }
        },
        "popu_tags": [
            "Action",
            "Roguelike",
            "Action",
            "Indie",
            "Roguelite",
            "Hack",
            "Slash",
            "Dungeon",
            "Crawler",
            "Great",
            "Soundtrack",
            "Roguelike",
            "Singleplayer",
            "Mythology",
            "Replay",
            "Value",
            "Story",
            "Rich",
            "Isometric",
            "Action",
            "Difficult",
            "Hand-drawn",
            "Atmospheric",
            "Early",
            "Access",
            "Perma",
            "Death+"
        ],
        "price": "249",
        "url_info": {
            "url": "https://store.steampowered.com/app/1145360/Hades/?snr=1_7_7_230_150_1",
            "id": "1145360",
            "type": "app",
            "url_name": "Hades"
        },
        "name": "Hades",
        "categories": [
            "Single-playerFull controller",
            "supportSteam Trading",
            "Cards Captions availableSteam",
            "Cloud Remote Play",
            "on Phone Remote",
            "Play on",
            "Tablet Remote Play",
            "on TV"
        ]
    },
    {
        "img_url": "https://steamcdn-a.akamaihd.net/steam/apps/1172620/header.jpg?t=1596057038",
        "date": "Jun 3, 2020",
        "developer": "Rare Ltd",
        "publisher": "Xbox Game Studios",
        "pegi": {
            "pegi_url": "https://steamstore-a.akamaihd.net/public/shared/images/game_ratings/ESRB/t.png",
            "pegi_tags": [
                "Violence",
                "Use",
                "of",
                "Alcohol",
                "Crude",
                "Humor"
            ],
            "age_limit": "m"
        },
        "full_desc": {
            "sort": "game",
            "desc": "About This Game About the GameSea of Thieves offers the essential pirate experience, from sailing and fighting to exploring and looting  everything you need to live the pirate life and become a legend in your own right. With no set roles, you have complete freedom to approach the world, and other players, however you choose.Whether youre voyaging as a group or sailing solo, youre bound to encounter other crews in this shared world adventure  but will they be friends or foes, and how will you respond?A Vast Open WorldExplore a vast open world filled with unspoiled islands, sunken ships and mysterious artefacts. Take on quests to hunt for lost treasure, seek out cursed Skeleton Captains or gather valuable cargo for the Trading Companies. Go hunting and fishing or choose from hundreds of optional goals and side-quests.Unforgettable storiesPlay through the Tall Tales to experience Sea of Thieves unique take on a story-driven campaign. With 11 tales to play through across two epic storylines, these immersive and cinematic quests provide around 30 hours of the ultimate pirate fantasy.Become Legend On your journey to become a Pirate Legend youll amass loot, build a reputation and define a unique personal style with your hard-earned rewards. Adventurer. Explorer. Conqueror. What will your legend be?A Game Thats Always GrowingWith five major expansions and almost a years worth of monthly updates, Sea of Thieves is a service-based game that is continually growing and evolving. Check back each month to see what new content has been added."
        },
        "requirements": {},
        "popu_tags": [
            "Adventure",
            "Action",
            "Multiplayer",
            "Pirates",
            "Open",
            "World",
            "Sailing",
            "Online",
            "First-",
            "Person",
            "Exploration",
            "Funny",
            "Naval",
            "Massively",
            "Multiplayer",
            "Atmospheric",
            "Swordplay",
            "Great",
            "Soundtrack",
            "Singleplayer+"
        ],
        "price": "399",
        "url_info": {
            "url": "https://store.steampowered.com/app/1172620/Sea_of_Thieves/?snr=1_7_7_230_150_1",
            "id": "1172620",
            "type": "app",
            "url_name": "Sea of Thieves"
        },
        "name": "Sea of Thieves",
        "categories": [
            "Online PvPOnline",
            "Co-opCross-Platform Multiplayer Steam",
            "Achievements Steam Trading",
            "Cards In-App Purchases Partial",
            "Controller Support Remote",
            "Play on",
            "Phone Remote Play",
            "on Tablet Requires",
            "3rd-Party Account:\u00a0Xbox",
            "Live\u00a0(Supports Linking",
            "to Steam"
        ]
    },
    {
        "img_url": "https://steamcdn-a.akamaihd.net/steam/apps/359550/header.jpg?t=1602605478",
        "date": "Dec 1, 2015",
        "developer": "Ubisoft Montreal",
        "publisher": "Ubisoft",
        "pegi": {
            "pegi_url": "https://steamstore-a.akamaihd.net/public/shared/images/game_ratings/ESRB/m.png",
            "pegi_tags": [
                "Blood",
                "Drug",
                "Reference",
                "Strong",
                "Language",
                "Violence"
            ],
            "age_limit": "m"
        },
        "full_desc": {
            "sort": "game",
            "desc": "About This Game Master the art of destruction and gadgetry in Tom Clancys Rainbow Six Siege. Face intense close quarters combat, high lethality, tactical decision making, team play and explosive action within every moment. Experience a new era of fierce firefights and expert strategy born from the rich legacy of past Tom Clancy's Rainbow Six games.Engage in a brand-new style of assault using an unrivaled level of destruction and gadgetry. On defense, coordinate with your team to transform your environments into strongholds. Trap, fortify and create defensive systems to prevent being breached by the enemy.On attack, lead your team through narrow corridors, barricaded doorways and reinforced walls. Combine tactical maps, observation drones, rappelling and more to plan, attack and defuse every situation.Choose from dozens of highly trained, Special Forces operators from around the world. Deploy the latest technology to track enemy movement. Shatter walls to open new lines of fire. Breach ceilings and floors to create new access points. Employ every weapon and gadget from your deadly arsenal to locate, manipulate and destroy your enemies and the environment around them.Experience new strategies and tactics as Rainbow Six Siege evolves over time. Change the rules of Siege with every update that includes new operators, weapons, gadgets and maps. Evolve alongside the ever-changing landscape with your friends and become the most experienced and dangerous operators out there.Compete against others from around the world in ranked match play. Grab your best squad and join the competitive community in weekly tournaments or watch the best professional teams battle it out in the Rainbow Six Siege Pro League."
        },
        "requirements": {
            "minimum": {
                "windows": {
                    "processor": " Intel Core i3 560 @ 3.3 GHz or AMD Phenom II X4 945 @ 3.0 GHz",
                    "memory": " 6 GB RAM",
                    "graphics": " NVIDIA GeForce GTX 460 or AMD Radeon HD 5870 (",
                    "os": " Windows 7, Windows 8.1, Windows 10 (64bit versions required)"
                }
            },
            "recommended": {
                "windows": {
                    "processor": " Intel Core i5-2500K @ 3.3 GHz or better or AMD FX-8120 @ 3.1 Ghz or better",
                    "memory": " 8 GB RAM",
                    "graphics": " NVIDIA GeForce GTX 670 (or GTX 760 / GTX 960) or AMD Radeon HD 7970 (or R9 280x [2GB VRAM] / R9 380 / Fury X)Network: Broadband Internet connectionStorage: 61 GB available spaceSound Card: ",
                    "os": "Windows 7 SP1, Windows 8.1, Windows 10 (64bit versions required)"
                }
            }
        },
        "popu_tags": [
            "Hero",
            "Shooter",
            "Multiplayer",
            "Tactical",
            "Shooter",
            "Team-",
            "Based",
            "Action",
            "First-",
            "Person",
            "Competitive",
            "Strategy",
            "Realistic",
            "Online",
            "Destruction",
            "Physics",
            "Psychological",
            "Horror",
            "Atmospheric",
            "Singleplayer",
            "Massively",
            "Multiplayer",
            "Casual+"
        ],
        "price": "199",
        "url_info": {
            "url": "https://store.steampowered.com/app/359550/Tom_Clancys_Rainbow_Six_Siege/?snr=1_7_7_230_150_1",
            "id": "359550",
            "type": "app",
            "url_name": "Tom Clancys Rainbow Six Siege"
        },
        "name": "Tom Clancy's Rainbow Six\u00ae Siege",
        "categories": [
            "Single-playerOnline PvPOnline",
            "Co-opSteam Trading",
            "Cards In-App Purchases Partial",
            "Controller Support Remote",
            "Play on",
            "Phone Remote Play",
            "on Tablet Requires",
            "3rd-Party Account:\u00a0Ubisoft",
            "Account\u00a0(Supports Linking",
            "to Steam",
            "Account)Requires agreement",
            "to a",
            "3rd-party EULATom",
            "Clancy's Rainbow",
            "Six\u00ae Siege"
        ]
    },
    {
        "img_url": "https://steamcdn-a.akamaihd.net/steam/apps/570/header.jpg?t=1602282853",
        "date": "Jul 9, 2013",
        "developer": "Valve",
        "publisher": "Valve",
        "full_desc": {
            "sort": "game",
            "desc": "About This Game The most-played game on Steam.Every day, millions of players worldwide enter battle as one of over a hundred Dota heroes. And no matter if it's their 10th hour of play or 1,000th, there's always something new to discover. With regular updates that ensure a constant evolution of gameplay, features, and heroes, Dota 2 has truly taken on a life of its own.One Battlefield. Infinite Possibilities.When it comes to diversity of heroes, abilities, and powerful items, Dota boasts an endless arrayno two games are the same. Any hero can fill multiple roles, and there's an abundance of items to help meet the needs of each game. Dota doesn't provide limitations on how to play, it empowers you to express your own style.All heroes are free.Competitive balance is Dota's crown jewel, and to ensure everyone is playing on an even field, the core content of the gamelike the vast pool of heroesis available to all players. Fans can collect cosmetics for heroes and fun add-ons for the world they inhabit, but everything you need to play is already included before you join your first match.Bring your friends and party up.Dota is deep, and constantly evolving, but it's never too late to join. Learn the ropes playing co-op vs. bots. Sharpen your skills in the hero demo mode. Jump into the behavior- and skill-based matchmaking system that ensures you'll be matched with the right players each game."
        },
        "requirements": {
            "minimum": {
                "windows": {
                    "processor": " Dual core from Intel or AMD at 2.8 GHz",
                    "memory": " 4 GB RAM",
                    "graphics": " nVidia GeForce 8600/9600GT, ATI/AMD Radeon HD2600/3600",
                    "os": " Windows 7 or newer"
                },
                "linux": {
                    "processor": " Dual core from Intel or AMD at 2.8 GHz",
                    "memory": " 4 GB RAM",
                    "graphics": " nVidia Geforce 8600/9600GT (Driver v331), AMD HD 2xxx-4xxx (Driver mesa 10.5.9), AMD HD 5xxx+ (Driver mesa 10.5.9 or Catalyst 15.7), Intel HD 3000 (Driver mesa 10.6)Network: Broadband Internet connection",
                    "os": " Ubuntu 12.04 or newer"
                }
            },
            "recommended": {}
        },
        "popu_tags": [
            "Free",
            "Play",
            "Multiplayer",
            "Strategye",
            "Sports",
            "Team-",
            "Based",
            "Competitive",
            "Action",
            "Online",
            "Difficult",
            "Tower",
            "Defense",
            "Fantasy",
            "Character",
            "Customization",
            "Replay",
            "Value",
            "Action",
            "Simulation+"
        ],
        "price": "free",
        "url_info": {
            "url": "https://store.steampowered.com/app/570/Dota_2/?snr=1_7_7_230_150_1",
            "id": "570",
            "type": "app",
            "url_name": "Dota 2"
        },
        "name": "Dota 2",
        "categories": [
            "Steam Trading",
            "Cards Steam Workshop SteamVR",
            "Collectibles In-App Purchases Valve",
            "Anti-Cheat enabled"
        ]
    },
    {
        "img_url": "https://steamcdn-a.akamaihd.net/steam/apps/230410/header.jpg?t=1601568920",
        "date": "Mar 25, 2013",
        "developer": "Digital Extremes",
        "publisher": "Digital Extremes",
        "pegi": {
            "pegi_url": "https://steamstore-a.akamaihd.net/public/shared/images/game_ratings/ESRB/m.png",
            "pegi_tags": [
                "Violence,",
                "Blood"
            ],
            "age_limit": "m"
        },
        "full_desc": {
            "sort": "game",
            "desc": "About This Game CHOOSE YOUR WARFRAMEWith more than 30 Warframes, each fully customizable with their own unique abilities, you can create the perfect Warframe for you. ASSEMBLE YOUR ARSENALKatanas. Crossbows. Flamethrowers. Expand your Arsenal with more than 300 diverse Weapons, then modify each one to match your playstyle.EXPERIENCE FAST-PACED COMBATSlice and dice through hordes of enemies, or go in guns blazing, or sneak your way in  the choice is yours.EXPLORE OPEN WORLDSExplore, discover, fight, and fly in massive open landscapes within Warframe.FLUID PARKOUR MOVEMENTSeamlessly leap, slide and glide through capital ships and underground compounds with a robust movement system.A SOLAR SYSTEM IN RUINIn the far-future world of Warframe, grotesque clones and capitalist machines dominate our solar system. Fight back against greed and corruption as you explore 18 worlds filled with techno-organic horrors.SQUAD UPYou dont have to work alone. Invite three friends or fight alongside the 38 million strong in our Tenno community.NINJAS PLAY FREEWarframe is entirely free-to-play. With no barrier to entry, theres nothing to stop you and your friends from joining our world. Welcome to the Origin System, Tenno."
        },
        "requirements": {
            "minimum": {
                "windows": {
                    "processor": "Intel Core 2 Duo e6400 or AMD Athlon x64 4000+        Video:DirectX 10+ capable Graphics Card",
                    "memory": "",
                    "graphics": "",
                    "os": "Windows 7 64-Bit (32-bit not supported)"
                }
            },
            "recommended": {}
        },
        "popu_tags": [
            "Free",
            "Play",
            "Looter",
            "Shooter",
            "Action",
            "Multiplayer",
            "Third-",
            "Person",
            "Shooter",
            "Ninja",
            "Shooter",
            "Parkour",
            "Space",
            "Online",
            "Futuristic",
            "Third",
            "Person",
            "Massively",
            "Multiplayer",
            "Hack",
            "Slash",
            "Singleplayer",
            "+"
        ],
        "price": "free",
        "url_info": {
            "url": "https://store.steampowered.com/app/230410/Warframe/?snr=1_7_7_230_150_1",
            "id": "230410",
            "type": "app",
            "url_name": "Warframe"
        },
        "name": "Warframe",
        "categories": [
            "Single-playerSteam Trading",
            "Cards In-App Purchases Partial",
            "Controller Support Remote",
            "Play on",
            "Phone Remote Play",
            "on Tablet Requires",
            "3rd-Party Account:\u00a0Warframe"
        ]
    },
    {
        "img_url": "https://steamcdn-a.akamaihd.net/steam/apps/306130/header.jpg?t=1601043462",
        "date": "Apr 4, 2014",
        "developer": "Zenimax Online Studios",
        "publisher": "Bethesda Softworks",
        "pegi": {
            "pegi_url": "https://steamstore-a.akamaihd.net/public/shared/images/game_ratings/ESRB/m.png",
            "pegi_tags": [
                "Blood",
                "and",
                "Gore",
                "Sexual",
                "Themes",
                "Use",
                "of",
                "Alcohol",
                "Violence"
            ],
            "age_limit": "m"
        },
        "full_desc": {
            "sort": "game",
            "desc": "About This Game Experience an ever-expanding story across all of Tamriel in The Elder Scrolls Online, an award-winning online RPG. Explore a rich, living world with friends or embark upon a solo adventure. Enjoy complete control over how your character looks and plays, from the weapons you wield to the skills you learn  the choices you make will shape your destiny. Welcome to a world without limits.PLAY THE WAY YOU LIKEBattle, craft, steal, siege, or explore, and combine different types of armor, weapons, and abilities to create your own style of play. The choice is yours to make in a persistent, ever-growing Elder Scrolls world.TELL YOUR OWN STORYDiscover the secrets of Tamriel as you set off to regain your lost soul and save the world from Oblivion. Experience any story in any part of the world, in whichever order you choose  with others or alone.A MULTIPLAYER RPGComplete quests with friends, join fellow adventurers to explore dangerous, monster-filled dungeons, or take part in epic PvP battles with hundreds of other players."
        },
        "requirements": {},
        "popu_tags": [
            "Open",
            "World",
            "Massively",
            "Multiplayer",
            "Multiplayer",
            "Fantasy",
            "Adventure",
            "First-",
            "Person",
            "Exploration",
            "Story",
            "Rich",
            "Third",
            "Person",
            "Magic",
            "Action",
            "Atmospheric",
            "Great",
            "Soundtrack",
            "Action",
            "Singleplayer",
            "Sandbox",
            "Character",
            "Customization+"
        ],
        "price": "199",
        "url_info": {
            "url": "https://store.steampowered.com/app/306130/The_Elder_Scrolls_Online/?snr=1_7_7_230_150_1",
            "id": "306130",
            "type": "app",
            "url_name": "The Elder Scrolls Online"
        },
        "name": "The Elder Scrolls\u00ae Online",
        "categories": [
            "MMOSteam Trading",
            "Cards Partial Controller",
            "Support Remote Play",
            "on Tablet Requires",
            "3rd-Party Account:\u00a0Elder",
            "Scrolls Online",
            "Account\u00a0(Supports Linking",
            "to Steam"
        ]
    },
    {
        "img_url": "https://steamcdn-a.akamaihd.net/steam/apps/238960/header.jpg?t=1602018413",
        "date": "Oct 23, 2013",
        "developer": "Grinding Gear Games",
        "publisher": "Grinding Gear Games",
        "full_desc": {
            "sort": "game",
            "desc": "About This Game You are an Exile, struggling to survive on the dark continent of Wraeclast, as you fight to earn power that will allow you to exact your revenge against those who wronged you. Created by hardcore gamers, Path of Exile is an online Action RPG set in a dark fantasy world. With a focus on visceral action combat, powerful items and deep character customization, Path of Exile is completely free and will never be pay-to-win.Key FeaturesFreedom. Power. Revenge.Banished for your misdeeds to the dark, brutal world of Wraeclast, you play as the Duelist, Witch, Ranger, Templar, Marauder, Shadow or the Scion class. From forsaken shores through to the ruined city of Sarn, explore Wraeclast and uncover the ancient secrets waiting for you.Unlimited Character CustomizationCreate and customize hundreds of unique skill combinations from tradable itemized gems and our gigantic passive skill tree. Combine skill gems, support gems and trigger gems to create your own unique combination of power, defense and destruction.Deadly MissionsThe Forsaken Masters each have their own style of mission and each of these missions has many variations. As you explore deeper into Wraeclast, the pool of available variations increases to challenge you in new ways. All of the Missions and their variations can occur anywhere in the game, including within end-game Maps.Dressed to KillPath of Exile is all about items. Find, collect and trade magic, rare and unique items with arcane properties, then customize your character build around the deadliest combinations you possess.Brutal Competitive PlayBattle in PvP tournaments seasons and Capture the Flag events for worldwide recognition. Compete in Daily Leagues and Race Events that run as separate game worlds with their own ladders and economies to win valuable prizes.Customise Your HideoutIn their extensive travels throughout Wraeclast, the Forsaken Masters have discovered ideal locations for an Exile to use as their own secret Hideout. Once you've earned a Master's trust, you may be taken to a Hideout, where you can create your own personalised town. Masters residing in your Hideout offer you daily Missions and train you in advanced crafting options. Use your Hideout as a quiet place to craft after battle, or expand it and use it as a personalised Guild Hall with hundreds of decorations.Fair-To-Play. Never Pay-To-Win. We're committed to creating a fair playing field for all players. You cannot gain gameplay advantage by spending real money in Path of Exile."
        },
        "requirements": {
            "minimum": {
                "windows": {
                    "processor": " x86-compatible 2.6GHz or better",
                    "memory": " 4 GB RAM",
                    "graphics": " NVIDIA\u00ae GeForce\u00ae GTX 650 Ti or ATI Radeon\u2122 HD 7850 or better",
                    "os": " Windows 7 SP1/Windows 8"
                }
            },
            "recommended": {
                "windows": {
                    "processor": " x64-compatible, quad core, 3.2GHz or better",
                    "memory": " 8 GB RAM",
                    "graphics": " NVIDIA\u00ae GeForce\u00ae GTX 1050 Ti or ATI Radeon\u2122 RX560 or better",
                    "os": "Windows 10"
                }
            }
        },
        "popu_tags": [
            "Free",
            "Play",
            "Action",
            "Hack",
            "Slash",
            "Multiplayer",
            "Massively",
            "Multiplayer",
            "Loot",
            "Action",
            "Fantasy",
            "Adventure",
            "Dungeon",
            "Crawler",
            "Online",
            "Indie",
            "Dark",
            "Fantasy",
            "Character",
            "Customization",
            "Inventory",
            "Management",
            "Fishing+"
        ],
        "price": "free",
        "url_info": {
            "url": "https://store.steampowered.com/app/238960/Path_of_Exile/?snr=1_7_7_230_150_1",
            "id": "238960",
            "type": "app",
            "url_name": "Path of Exile"
        },
        "name": "Path of Exile",
        "categories": [
            "Single-playerMMOOnline PvPSteam",
            "Achievements Steam Trading",
            "Cards In-App Purchases Remote",
            "Play on",
            "Tablet Requires agreement",
            "to a",
            "3rd-party EULAPath",
            "of Exile",
            "EULA 1"
        ]
    },
    {
        "img_url": "https://steamcdn-a.akamaihd.net/steam/apps/397540/header.jpg?t=1600378875",
        "date": "Mar 13, 2020",
        "developer": "Gearbox Software",
        "publisher": "2K",
        "pegi": {
            "pegi_url": "https://steamstore-a.akamaihd.net/public/shared/images/game_ratings/ESRB/m.png",
            "pegi_tags": [
                "Blood",
                "and",
                "Gore",
                "Intense",
                "Violence",
                "Sexual",
                "Themes",
                "Strong",
                "Language"
            ],
            "age_limit": "m"
        },
        "full_desc": {
            "sort": "game",
            "desc": "About This Game The original shooter-looter returns, packing bazillions of guns and an all-new mayhem-fueled adventure! Blast through new worlds and enemies as one of four brand new Vault Hunters  the ultimate treasure-seeking badasses of the Borderlands, each with deep skill trees, abilities, and customization. Play solo or join with friends to take on insane enemies, score loads of loot and save your home from the most ruthless cult leaders in the galaxy.A MAYHEM-FUELED THRILL RIDE Stop the fanatical Calypso Twins from uniting the bandit clans and claiming the galaxys ultimate power. Only you, a thrill-seeking Vault Hunter, have the arsenal and allies to take them down.YOUR VAULT HUNTER, YOUR PLAYSTYLE Become one of four extraordinary Vault Hunters, each with unique abilities, playstyles, deep skill trees, and tons of personalization options. All Vault Hunters are capable of awesome mayhem alone, but together they are unstoppable.LOCK, LOAD, AND LOOTWith bazillions of guns and gadgets, every fight is an opportunity to score new gear. Firearms with self-propelling bullet shields? Check. Rifles that spawn fire-spewing volcanoes? Obviously. Guns that grow legs and chase down enemies while hurling verbal insults? Yeah, got that too.NEW BORDERLANDS Discover new worlds beyond Pandora, each featuring unique environments to explore and enemies to destroy. Tear through hostile deserts, battle your way across war-torn cityscapes, navigate deadly bayous, and more!QUICK & SEAMLESS CO-OP ACTIONPlay with anyone at any time with online co-op, regardless of your level or mission progress."
        },
        "requirements": {},
        "popu_tags": [
            "Action",
            "Online",
            "Looter",
            "Shooter",
            "Shooter",
            "Open",
            "World",
            "Multiplayer",
            "Loot",
            "Campaign",
            "Gore",
            "Singleplayer",
            "Violent",
            "First-",
            "Person",
            "Adventure",
            "Nudity",
            "Great",
            "Soundtrack",
            "Epic",
            "Comedy+"
        ],
        "price": "599",
        "url_info": {
            "url": "https://store.steampowered.com/app/397540/Borderlands_3/?snr=1_7_7_230_150_1",
            "id": "397540",
            "type": "app",
            "url_name": "Borderlands 3"
        },
        "name": "Borderlands 3",
        "categories": [
            "Single-playerOnline Co-opLAN",
            "Co-opCross-Platform Multiplayer Steam",
            "Achievements Full controller",
            "supportSteam Trading",
            "Cards Steam Cloud Remote",
            "Play on",
            "Phone Remote Play",
            "on Tablet Remote",
            "Play on",
            "TVIncorporates 3rd-party",
            "DRM: Denuvo",
            "Anti-tamper5 Activations",
            "per 24",
            "hours machine",
            "activation limitRequires"
        ]
    },
    {
        "img_url": "https://steamcdn-a.akamaihd.net/steam/apps/1129580/header_alt_assets_0.jpg?t=1602690772",
        "date": "Sep 17, 2020",
        "developer": "Render Cube",
        "full_desc": {
            "sort": "game",
            "desc": "About This Game Europe in the early Middle Ages -- Nobles and clergy rule and the trade between nations brings prosperity as well as envy, distrust, and greed. Military conflict is everywhere and entire continents are changing.In Medieval Dynasty, you take on the role of a young man who has fled from war and wants to take his fate into his own hands. From being alone, inexperienced and poor you will develop into a master of many skills, a leader of your community and the founder of a prosperous dynasty which is meant to last and prosper for generations to come. Defending against wild animals while hunting for food, gathering resources and crafting equipment, building a house and erecting a whole bustling village while founding a family all contribute to a unique gameplay experience across many genres. Tough winters and unexpected events challenge your skills and dexterity as you strive to build your own legacy.You can choose to follow the main chapters, solve the questlines or just roam around and explore the vast medieval world  but be careful as wolves or bears may try to take a bite from you... Begin with the simplest things for your own survival like hunting and farming as well as building yourself a home. Found a family and have a heir - entice others to live near and work for you, erect many other buildings to transform your settlement into a vibrant village and, ultimately, a thriving dynasty that will reign for generations. A massive medieval open 3D world awaits Be aware of harsh winters and unexpected events while honing your skills to turn from a medieval survivor into the ruler of a dynasty. Grab your axe, hammer, or hunting bow - and craft your legacy!Medieval Dynasty is a unique combination of multiple successful genres:Survival: The need to survive, feed and ensure survival through hunting, farming and cultivation of the land.Simulation: Create tools and weapons, construct and extend houses, stables and all manner of buildings as you grow an empire.Role playing: Develop your own character, interact with NPCs, take care of your family and form community alliances by helping others and trading freely.Strategy: While pioneering in the Middle Ages you will found and expand a village, manage the inhabitants, collect resources and produce all the goods you need and use or capitalise by trading them.Features: Beautiful and realistic open world 3D landscape with state-of-the-art graphics Full 4 seasons with day/night cycle and realistic weather conditions Interactive environment with trees to fell, various fruit to pluck, stones to collect, caves to explore and many more 18 different buildings with various levels from hay shacks to full stone mansions Over 60 pieces of equipment to craft, including weapons, tools, furniture and clothing Realistic wildlife interaction with plenty of different animals such as wolves, wild boars, deer, rabbits and others All activities will impact on food, water, health and endurance status Detailed skill tree for individual character development Unique events and decisions with direct impact on gameplay Dynasty reputation system triggering events with the king Quests, trade and economy, sandbox option, social connections to NPCs and many more"
        },
        "requirements": {
            "minimum": {
                "windows": {
                    "processor": " 3 GHz Quad Core Processor",
                    "memory": " 8 GB RAM",
                    "graphics": " ",
                    "os": " Windows 7, 8, 10"
                }
            },
            "recommended": {
                "windows": {
                    "processor": " 4 GHz Quad Core Processor",
                    "memory": " 16 GB RAM",
                    "graphics": " ",
                    "os": "Windows 10"
                }
            }
        },
        "popu_tags": [
            "Survival",
            "Medieval",
            "Adventure",
            "Building",
            "Singleplayer",
            "Open",
            "World",
            "Early",
            "Access",
            "Simulation",
            "Action",
            "Realistic",
            "Sandbox",
            "Crafting",
            "Historical",
            "City",
            "Builder",
            "Colony",
            "Atmospheric",
            "Resource",
            "Management",
            "Exploration3",
            "+"
        ],
        "price": "299",
        "url_info": {
            "url": "https://store.steampowered.com/app/1129580/Medieval_Dynasty/?snr=1_7_7_230_150_1",
            "id": "1129580",
            "type": "app",
            "url_name": "Medieval Dynasty"
        },
        "name": "Medieval Dynasty",
        "categories": [
            "Single-playerFull controller"
        ]
    },
    {
        "img_url": "https://steamcdn-a.akamaihd.net/steam/apps/381210/header.jpg?t=1600097837",
        "date": "Jun 14, 2016",
        "developer": "Behaviour Interactive Inc.",
        "publisher": "Behaviour Interactive Inc.",
        "pegi": {
            "pegi_url": "https://steamstore-a.akamaihd.net/public/shared/images/game_ratings/ESRB/m.png",
            "pegi_tags": [
                "Blood",
                "and",
                "Gore",
                "Intense",
                "Violence",
                "Strong",
                "Language"
            ],
            "age_limit": "m"
        },
        "full_desc": {
            "sort": "game",
            "desc": "About This Game Death Is Not an Escape.Dead by Daylight is a multiplayer (4vs1) horror game where one player takes on the role of the savage Killer, and the other four players play as Survivors, trying to escape the Killer and avoid being caught, tortured and killed. Survivors play in third-person and have the advantage of better situational awareness. The Killer plays in first-person and is more focused on their prey. The Survivors' goal in each encounter is to escape the Killing Ground without getting caught by the Killer - something that sounds easier than it is, especially when the environment changes every time you play.More information about the game is available at http://www.deadbydaylight.comKey FeaturesSurvive Together Or Not - Survivors can either cooperate with the others or be selfish. Your chance of survival will vary depending on whether you work together as a team or if you go at it alone. Will you be able to outwit the Killer and escape their Killing Ground?Where Am I? - Each level is procedurally generated, so youll never know what to expect. Random spawn points mean you will never feel safe as the world and its danger change every time you play.A Feast for Killers - Dead by Daylight draws from all corners of the horror world. As a Killer you can play as anything from a powerful Slasher to terrifying paranormal entities. Familiarize yourself with your Killing Grounds and master each Killers unique power to be able to hunt, catch and sacrifice your victims.Deeper and Deeper - Each Killer and Survivor has their own deep progression system and plenty of unlockables that can be customized to fit your own personal strategy. Experience, skills and understanding of the environment are key to being able to hunt or outwit the Killer.Real People, Real Fear - The procedural levels and real human reactions to pure horror makes each game session an unexpected scenario. You will never be able to tell how its going to turn out. Ambience, music, and chilling environments combine into a terrifying experience. With enough time, you might even discover whats hiding in the fog."
        },
        "requirements": {},
        "popu_tags": [
            "Horror",
            "Survival",
            "Horror",
            "Multiplayer",
            "Online",
            "Survival",
            "Stealth",
            "Gore",
            "Blood",
            "Third",
            "Person",
            "Team-",
            "Based",
            "First-",
            "Person",
            "Violent",
            "Action",
            "Atmospheric",
            "Psychological",
            "Horror",
            "Strategy",
            "Comedy",
            "Mature",
            "Difficult+"
        ],
        "price": "199",
        "url_info": {
            "url": "https://store.steampowered.com/app/381210/Dead_by_Daylight/?snr=1_7_7_230_150_1",
            "id": "381210",
            "type": "app",
            "url_name": "Dead by Daylight"
        },
        "name": "Dead by Daylight",
        "categories": [
            "Online PvPOnline",
            "Co-opSteam Achievements Full",
            "controller supportSteam",
            "Trading Cards Steam",
            "Cloud Remote Play",
            "on Phone Remote",
            "Play on",
            "Tablet Remote Play",
            "on TVRequires",
            "agreement to",
            "a 3rd-party",
            "EULADead by",
            "Daylight EULA"
        ]
    }
]